Análisis de Patrones de Actividad Física en Usuarias de Wearables
…
Tras aplicar los filtros de integridad metabólica y física, es
necesario re-evaluar si las usuarias aún cumplen con el criterio de
continuidad (mínimo de 20 días registrados). Este paso es vital para
evitar que perfiles con pocos datos válidos distorsionen las tendencias
grupales.

n_distinct(tabla_limpia$Id)

## [1] 30

tabla_limpia %>%
  count(Id) %>%
  arrange(n)

## # A tibble: 30 × 2
##            Id     n
##         <dbl> <int>
##  1 4057192912    16
##  2 6775888955    23
##  3 8253242879    24
##  4 1844505072    26
##  5 6290855005    26
##  6 3372868164    28
##  7 4388161847    30
##  8 2347167796    31
##  9 6117666160    31
## 10 8583815059    33
## # ℹ 20 more rows
…
